# MagicaVoxel @ Ephtracy

# group
o 

# material
mtllib missile.mtl
usemtl palette

# normals
vn -1 0 0
vn 1 0 0
vn 0 0 1
vn 0 0 -1
vn 0 -1 0
vn 0 1 0

# texcoords
vt 0.970703 0.5
vt 0.974609 0.5
vt 0.978516 0.5
vt 0.982422 0.5

# verts
v 0 2.2 -0.2
v 0 2.2 -0.3
v 0 2.3 -0.2
v 0 2.3 -0.3
v 0.2 2.1 -0.2
v 0.2 2.1 -0.3
v 0.2 2.2 -0.1
v 0.2 2.2 -0.2
v 0.2 2.2 -0.3
v 0.2 2.2 -0.4
v 0.2 2.3 -0.1
v 0.2 2.3 -0.2
v 0.2 2.3 -0.3
v 0.2 2.3 -0.4
v 0.2 2.4 -0.2
v 0.2 2.4 -0.3
v 0.3 2.1 -0.1
v 0.3 2.1 -0.2
v 0.3 2.1 -0.3
v 0.3 2.1 -0.4
v 0.3 2.2 -0.1
v 0.3 2.2 -0.2
v 0.3 2.2 -0.3
v 0.3 2.2 -0.4
v 0.3 2.3 -0.1
v 0.3 2.3 -0.2
v 0.3 2.3 -0.3
v 0.3 2.3 -0.4
v 0.3 2.4 -0.1
v 0.3 2.4 -0.2
v 0.3 2.4 -0.3
v 0.3 2.4 -0.4
v 0.4 2.1 -0.2
v 0.4 2.1 -0.3
v 0.4 2.2 -0.1
v 0.4 2.2 -0.2
v 0.4 2.2 -0.3
v 0.4 2.2 -0.4
v 0.4 2.3 -0.1
v 0.4 2.3 -0.2
v 0.4 2.3 -0.3
v 0.4 2.3 -0.4
v 0.4 2.4 -0.2
v 0.4 2.4 -0.3
v 0.5 2.1 -0.1
v 0.5 2.1 -0.2
v 0.5 2.1 -0.3
v 0.5 2.1 -0.4
v 0.5 2.2 -0.1
v 0.5 2.2 -0.2
v 0.5 2.2 -0.3
v 0.5 2.2 -0.4
v 0.5 2.3 -0.1
v 0.5 2.3 -0.2
v 0.5 2.3 -0.3
v 0.5 2.3 -0.4
v 0.5 2.4 -0.1
v 0.5 2.4 -0.2
v 0.5 2.4 -0.3
v 0.5 2.4 -0.4
v 0.7 2 -0.2
v 0.7 2 -0.3
v 0.7 2.1 -0.2
v 0.7 2.1 -0.3
v 0.7 2.2 0
v 0.7 2.2 -0.1
v 0.7 2.2 -0.4
v 0.7 2.2 -0.5
v 0.7 2.3 0
v 0.7 2.3 -0.1
v 0.7 2.3 -0.4
v 0.7 2.3 -0.5
v 0.7 2.4 -0.2
v 0.7 2.4 -0.3
v 0.7 2.5 -0.2
v 0.7 2.5 -0.3
v 0.9 2 -0.2
v 0.9 2 -0.3
v 0.9 2.1 -0.2
v 0.9 2.1 -0.3
v 0.9 2.2 0
v 0.9 2.2 -0.1
v 0.9 2.2 -0.4
v 0.9 2.2 -0.5
v 0.9 2.3 0
v 0.9 2.3 -0.1
v 0.9 2.3 -0.4
v 0.9 2.3 -0.5
v 0.9 2.4 -0.2
v 0.9 2.4 -0.3
v 0.9 2.5 -0.2
v 0.9 2.5 -0.3
v 1.7 2 -0.2
v 1.7 2 -0.3
v 1.7 2.1 -0.2
v 1.7 2.1 -0.3
v 1.7 2.2 0
v 1.7 2.2 -0.1
v 1.7 2.3 0
v 1.7 2.3 -0.1
v 1.7 2.4 -0.2
v 1.7 2.4 -0.3
v 1.7 2.5 -0.2
v 1.7 2.5 -0.3
v 1.8 2.2 -0.4
v 1.8 2.2 -0.5
v 1.8 2.3 -0.4
v 1.8 2.3 -0.5
v 2.4 2.1 -0.2
v 2.4 2.1 -0.3
v 2.4 2.2 -0.1
v 2.4 2.2 -0.2
v 2.4 2.2 -0.3
v 2.4 2.2 -0.4
v 2.4 2.3 -0.1
v 2.4 2.3 -0.2
v 2.4 2.3 -0.3
v 2.4 2.3 -0.4
v 2.4 2.4 -0.2
v 2.4 2.4 -0.3
v 0.3 2.1 -0.2
v 0.3 2.1 -0.3
v 0.3 2.2 -0.1
v 0.3 2.2 -0.2
v 0.3 2.2 -0.3
v 0.3 2.2 -0.4
v 0.3 2.3 -0.1
v 0.3 2.3 -0.2
v 0.3 2.3 -0.3
v 0.3 2.3 -0.4
v 0.3 2.4 -0.2
v 0.3 2.4 -0.3
v 0.4 2.1 -0.1
v 0.4 2.1 -0.2
v 0.4 2.1 -0.3
v 0.4 2.1 -0.4
v 0.4 2.2 -0.1
v 0.4 2.2 -0.2
v 0.4 2.2 -0.3
v 0.4 2.2 -0.4
v 0.4 2.3 -0.1
v 0.4 2.3 -0.2
v 0.4 2.3 -0.3
v 0.4 2.3 -0.4
v 0.4 2.4 -0.1
v 0.4 2.4 -0.2
v 0.4 2.4 -0.3
v 0.4 2.4 -0.4
v 0.8 2 -0.2
v 0.8 2 -0.3
v 0.8 2.1 -0.2
v 0.8 2.1 -0.3
v 0.8 2.2 0
v 0.8 2.2 -0.1
v 0.8 2.2 -0.4
v 0.8 2.2 -0.5
v 0.8 2.3 0
v 0.8 2.3 -0.1
v 0.8 2.3 -0.4
v 0.8 2.3 -0.5
v 0.8 2.4 -0.2
v 0.8 2.4 -0.3
v 0.8 2.5 -0.2
v 0.8 2.5 -0.3
v 1.4 2 -0.2
v 1.4 2 -0.3
v 1.4 2.1 -0.2
v 1.4 2.1 -0.3
v 1.4 2.2 0
v 1.4 2.2 -0.1
v 1.4 2.2 -0.4
v 1.4 2.2 -0.5
v 1.4 2.3 0
v 1.4 2.3 -0.1
v 1.4 2.3 -0.4
v 1.4 2.3 -0.5
v 1.4 2.4 -0.2
v 1.4 2.4 -0.3
v 1.4 2.5 -0.2
v 1.4 2.5 -0.3
v 1.9 2 -0.2
v 1.9 2 -0.3
v 1.9 2.1 -0.2
v 1.9 2.1 -0.3
v 1.9 2.2 0
v 1.9 2.2 -0.1
v 1.9 2.3 0
v 1.9 2.3 -0.1
v 1.9 2.4 -0.2
v 1.9 2.4 -0.3
v 1.9 2.5 -0.2
v 1.9 2.5 -0.3
v 2 2.2 -0.4
v 2 2.2 -0.5
v 2 2.3 -0.4
v 2 2.3 -0.5
v 2.1 2.1 -0.1
v 2.1 2.1 -0.2
v 2.1 2.1 -0.3
v 2.1 2.1 -0.4
v 2.1 2.2 -0.1
v 2.1 2.2 -0.2
v 2.1 2.2 -0.3
v 2.1 2.2 -0.4
v 2.1 2.3 -0.1
v 2.1 2.3 -0.2
v 2.1 2.3 -0.3
v 2.1 2.3 -0.4
v 2.1 2.4 -0.1
v 2.1 2.4 -0.2
v 2.1 2.4 -0.3
v 2.1 2.4 -0.4
v 2.3 2.1 -0.2
v 2.3 2.1 -0.3
v 2.3 2.2 -0.1
v 2.3 2.2 -0.2
v 2.3 2.2 -0.3
v 2.3 2.2 -0.4
v 2.3 2.3 -0.1
v 2.3 2.3 -0.2
v 2.3 2.3 -0.3
v 2.3 2.3 -0.4
v 2.3 2.4 -0.2
v 2.3 2.4 -0.3
v 2.5 2.1 -0.2
v 2.5 2.1 -0.3
v 2.5 2.2 -0.1
v 2.5 2.2 -0.2
v 2.5 2.2 -0.3
v 2.5 2.2 -0.4
v 2.5 2.3 -0.1
v 2.5 2.3 -0.2
v 2.5 2.3 -0.3
v 2.5 2.3 -0.4
v 2.5 2.4 -0.2
v 2.5 2.4 -0.3
v 2.6 2.2 -0.2
v 2.6 2.2 -0.3
v 2.6 2.3 -0.2
v 2.6 2.3 -0.3
v 0.7 2.2 0
v 0.7 2.3 0
v 0.8 2.2 0
v 0.8 2.3 0
v 0.9 2.2 0
v 0.9 2.3 0
v 1.4 2.2 0
v 1.4 2.3 0
v 1.7 2.2 0
v 1.7 2.3 0
v 1.9 2.2 0
v 1.9 2.3 0
v 0.2 2.2 -0.1
v 0.2 2.3 -0.1
v 0.3 2.1 -0.1
v 0.3 2.2 -0.1
v 0.3 2.3 -0.1
v 0.3 2.4 -0.1
v 0.4 2.1 -0.1
v 0.4 2.2 -0.1
v 0.4 2.3 -0.1
v 0.4 2.4 -0.1
v 0.5 2.1 -0.1
v 0.5 2.2 -0.1
v 0.5 2.3 -0.1
v 0.5 2.4 -0.1
v 0.7 2.1 -0.1
v 0.7 2.2 -0.1
v 0.7 2.3 -0.1
v 0.7 2.4 -0.1
v 0.8 2.2 -0.1
v 0.8 2.3 -0.1
v 0.9 2.2 -0.1
v 0.9 2.3 -0.1
v 1.4 2.2 -0.1
v 1.4 2.3 -0.1
v 1.7 2.2 -0.1
v 1.7 2.3 -0.1
v 1.9 2.2 -0.1
v 1.9 2.3 -0.1
v 2.1 2.1 -0.1
v 2.1 2.2 -0.1
v 2.1 2.3 -0.1
v 2.1 2.4 -0.1
v 2.3 2.2 -0.1
v 2.3 2.3 -0.1
v 2.4 2.2 -0.1
v 2.4 2.3 -0.1
v 2.5 2.2 -0.1
v 2.5 2.3 -0.1
v 0 2.2 -0.2
v 0 2.3 -0.2
v 0.2 2.1 -0.2
v 0.2 2.2 -0.2
v 0.2 2.3 -0.2
v 0.2 2.4 -0.2
v 0.3 2.1 -0.2
v 0.3 2.2 -0.2
v 0.3 2.3 -0.2
v 0.3 2.4 -0.2
v 0.4 2.1 -0.2
v 0.4 2.2 -0.2
v 0.4 2.3 -0.2
v 0.4 2.4 -0.2
v 0.5 2.1 -0.2
v 0.5 2.2 -0.2
v 0.5 2.3 -0.2
v 0.5 2.4 -0.2
v 0.7 2 -0.2
v 0.7 2.1 -0.2
v 0.7 2.4 -0.2
v 0.7 2.5 -0.2
v 0.8 2 -0.2
v 0.8 2.1 -0.2
v 0.8 2.4 -0.2
v 0.8 2.5 -0.2
v 0.9 2 -0.2
v 0.9 2.1 -0.2
v 0.9 2.4 -0.2
v 0.9 2.5 -0.2
v 1.4 2 -0.2
v 1.4 2.1 -0.2
v 1.4 2.4 -0.2
v 1.4 2.5 -0.2
v 1.7 2 -0.2
v 1.7 2.1 -0.2
v 1.7 2.4 -0.2
v 1.7 2.5 -0.2
v 1.9 2 -0.2
v 1.9 2.1 -0.2
v 1.9 2.4 -0.2
v 1.9 2.5 -0.2
v 2.1 2.1 -0.2
v 2.1 2.2 -0.2
v 2.1 2.3 -0.2
v 2.1 2.4 -0.2
v 2.3 2.1 -0.2
v 2.3 2.2 -0.2
v 2.3 2.3 -0.2
v 2.3 2.4 -0.2
v 2.4 2.1 -0.2
v 2.4 2.2 -0.2
v 2.4 2.3 -0.2
v 2.4 2.4 -0.2
v 2.5 2.1 -0.2
v 2.5 2.2 -0.2
v 2.5 2.3 -0.2
v 2.5 2.4 -0.2
v 2.6 2.2 -0.2
v 2.6 2.3 -0.2
v 0.3 2.1 -0.3
v 0.3 2.2 -0.3
v 0.3 2.3 -0.3
v 0.3 2.4 -0.3
v 0.4 2.1 -0.3
v 0.4 2.2 -0.3
v 0.4 2.3 -0.3
v 0.4 2.4 -0.3
v 0.3 2.1 -0.2
v 0.3 2.2 -0.2
v 0.3 2.3 -0.2
v 0.3 2.4 -0.2
v 0.4 2.1 -0.2
v 0.4 2.2 -0.2
v 0.4 2.3 -0.2
v 0.4 2.4 -0.2
v 0 2.2 -0.3
v 0 2.3 -0.3
v 0.2 2.1 -0.3
v 0.2 2.2 -0.3
v 0.2 2.3 -0.3
v 0.2 2.4 -0.3
v 0.3 2.1 -0.3
v 0.3 2.2 -0.3
v 0.3 2.3 -0.3
v 0.3 2.4 -0.3
v 0.4 2.1 -0.3
v 0.4 2.2 -0.3
v 0.4 2.3 -0.3
v 0.4 2.4 -0.3
v 0.5 2.1 -0.3
v 0.5 2.2 -0.3
v 0.5 2.3 -0.3
v 0.5 2.4 -0.3
v 0.7 2 -0.3
v 0.7 2.1 -0.3
v 0.7 2.4 -0.3
v 0.7 2.5 -0.3
v 0.8 2 -0.3
v 0.8 2.1 -0.3
v 0.8 2.4 -0.3
v 0.8 2.5 -0.3
v 0.9 2 -0.3
v 0.9 2.1 -0.3
v 0.9 2.4 -0.3
v 0.9 2.5 -0.3
v 1.4 2 -0.3
v 1.4 2.1 -0.3
v 1.4 2.4 -0.3
v 1.4 2.5 -0.3
v 1.7 2 -0.3
v 1.7 2.1 -0.3
v 1.7 2.4 -0.3
v 1.7 2.5 -0.3
v 1.9 2 -0.3
v 1.9 2.1 -0.3
v 1.9 2.4 -0.3
v 1.9 2.5 -0.3
v 2.1 2.1 -0.3
v 2.1 2.2 -0.3
v 2.1 2.3 -0.3
v 2.1 2.4 -0.3
v 2.3 2.1 -0.3
v 2.3 2.2 -0.3
v 2.3 2.3 -0.3
v 2.3 2.4 -0.3
v 2.4 2.1 -0.3
v 2.4 2.2 -0.3
v 2.4 2.3 -0.3
v 2.4 2.4 -0.3
v 2.5 2.1 -0.3
v 2.5 2.2 -0.3
v 2.5 2.3 -0.3
v 2.5 2.4 -0.3
v 2.6 2.2 -0.3
v 2.6 2.3 -0.3
v 0.2 2.2 -0.4
v 0.2 2.3 -0.4
v 0.3 2.1 -0.4
v 0.3 2.2 -0.4
v 0.3 2.3 -0.4
v 0.3 2.4 -0.4
v 0.4 2.1 -0.4
v 0.4 2.2 -0.4
v 0.4 2.3 -0.4
v 0.4 2.4 -0.4
v 0.5 2.1 -0.4
v 0.5 2.2 -0.4
v 0.5 2.3 -0.4
v 0.5 2.4 -0.4
v 0.7 2.1 -0.4
v 0.7 2.2 -0.4
v 0.7 2.3 -0.4
v 0.7 2.4 -0.4
v 0.8 2.2 -0.4
v 0.8 2.3 -0.4
v 0.9 2.2 -0.4
v 0.9 2.3 -0.4
v 1.4 2.2 -0.4
v 1.4 2.3 -0.4
v 1.8 2.2 -0.4
v 1.8 2.3 -0.4
v 2 2.2 -0.4
v 2 2.3 -0.4
v 2.1 2.1 -0.4
v 2.1 2.2 -0.4
v 2.1 2.3 -0.4
v 2.1 2.4 -0.4
v 2.3 2.2 -0.4
v 2.3 2.3 -0.4
v 2.4 2.2 -0.4
v 2.4 2.3 -0.4
v 2.5 2.2 -0.4
v 2.5 2.3 -0.4
v 0.7 2.2 -0.5
v 0.7 2.3 -0.5
v 0.8 2.2 -0.5
v 0.8 2.3 -0.5
v 0.9 2.2 -0.5
v 0.9 2.3 -0.5
v 1.4 2.2 -0.5
v 1.4 2.3 -0.5
v 1.8 2.2 -0.5
v 1.8 2.3 -0.5
v 2 2.2 -0.5
v 2 2.3 -0.5
v 0.7 2 -0.2
v 0.8 2 -0.2
v 0.9 2 -0.2
v 1.4 2 -0.2
v 1.7 2 -0.2
v 1.9 2 -0.2
v 0.7 2 -0.3
v 0.8 2 -0.3
v 0.9 2 -0.3
v 1.4 2 -0.3
v 1.7 2 -0.3
v 1.9 2 -0.3
v 0.3 2.1 -0.1
v 0.4 2.1 -0.1
v 0.5 2.1 -0.1
v 0.7 2.1 -0.1
v 2.1 2.1 -0.1
v 0.2 2.1 -0.2
v 0.3 2.1 -0.2
v 0.4 2.1 -0.2
v 0.5 2.1 -0.2
v 0.7 2.1 -0.2
v 0.8 2.1 -0.2
v 0.9 2.1 -0.2
v 1.4 2.1 -0.2
v 1.7 2.1 -0.2
v 1.9 2.1 -0.2
v 2.1 2.1 -0.2
v 2.3 2.1 -0.2
v 2.4 2.1 -0.2
v 2.5 2.1 -0.2
v 0.2 2.1 -0.3
v 0.3 2.1 -0.3
v 0.4 2.1 -0.3
v 0.5 2.1 -0.3
v 0.7 2.1 -0.3
v 0.8 2.1 -0.3
v 0.9 2.1 -0.3
v 1.4 2.1 -0.3
v 1.7 2.1 -0.3
v 1.9 2.1 -0.3
v 2.1 2.1 -0.3
v 2.3 2.1 -0.3
v 2.4 2.1 -0.3
v 2.5 2.1 -0.3
v 0.3 2.1 -0.4
v 0.4 2.1 -0.4
v 0.5 2.1 -0.4
v 0.7 2.1 -0.4
v 2.1 2.1 -0.4
v 0.7 2.2 0
v 0.8 2.2 0
v 0.9 2.2 0
v 1.4 2.2 0
v 1.7 2.2 0
v 1.9 2.2 0
v 0.2 2.2 -0.1
v 0.3 2.2 -0.1
v 0.4 2.2 -0.1
v 0.5 2.2 -0.1
v 0.7 2.2 -0.1
v 0.8 2.2 -0.1
v 0.9 2.2 -0.1
v 1.4 2.2 -0.1
v 1.7 2.2 -0.1
v 1.9 2.2 -0.1
v 2.1 2.2 -0.1
v 2.3 2.2 -0.1
v 2.4 2.2 -0.1
v 2.5 2.2 -0.1
v 0 2.2 -0.2
v 0.2 2.2 -0.2
v 0.3 2.2 -0.2
v 0.4 2.2 -0.2
v 0.5 2.2 -0.2
v 2.1 2.2 -0.2
v 2.3 2.2 -0.2
v 2.4 2.2 -0.2
v 2.5 2.2 -0.2
v 2.6 2.2 -0.2
v 0 2.2 -0.3
v 0.2 2.2 -0.3
v 0.3 2.2 -0.3
v 0.4 2.2 -0.3
v 0.5 2.2 -0.3
v 2.1 2.2 -0.3
v 2.3 2.2 -0.3
v 2.4 2.2 -0.3
v 2.5 2.2 -0.3
v 2.6 2.2 -0.3
v 0.2 2.2 -0.4
v 0.3 2.2 -0.4
v 0.4 2.2 -0.4
v 0.5 2.2 -0.4
v 0.7 2.2 -0.4
v 0.8 2.2 -0.4
v 0.9 2.2 -0.4
v 1.4 2.2 -0.4
v 1.8 2.2 -0.4
v 2 2.2 -0.4
v 2.1 2.2 -0.4
v 2.3 2.2 -0.4
v 2.4 2.2 -0.4
v 2.5 2.2 -0.4
v 0.7 2.2 -0.5
v 0.8 2.2 -0.5
v 0.9 2.2 -0.5
v 1.4 2.2 -0.5
v 1.8 2.2 -0.5
v 2 2.2 -0.5
v 0.3 2.3 -0.1
v 0.4 2.3 -0.1
v 0.3 2.3 -0.2
v 0.4 2.3 -0.2
v 0.3 2.3 -0.3
v 0.4 2.3 -0.3
v 0.3 2.3 -0.4
v 0.4 2.3 -0.4
v 0.3 2.2 -0.1
v 0.4 2.2 -0.1
v 0.3 2.2 -0.2
v 0.4 2.2 -0.2
v 0.3 2.2 -0.3
v 0.4 2.2 -0.3
v 0.3 2.2 -0.4
v 0.4 2.2 -0.4
v 0.7 2.3 0
v 0.8 2.3 0
v 0.9 2.3 0
v 1.4 2.3 0
v 1.7 2.3 0
v 1.9 2.3 0
v 0.2 2.3 -0.1
v 0.3 2.3 -0.1
v 0.4 2.3 -0.1
v 0.5 2.3 -0.1
v 0.7 2.3 -0.1
v 0.8 2.3 -0.1
v 0.9 2.3 -0.1
v 1.4 2.3 -0.1
v 1.7 2.3 -0.1
v 1.9 2.3 -0.1
v 2.1 2.3 -0.1
v 2.3 2.3 -0.1
v 2.4 2.3 -0.1
v 2.5 2.3 -0.1
v 0 2.3 -0.2
v 0.2 2.3 -0.2
v 0.3 2.3 -0.2
v 0.4 2.3 -0.2
v 0.5 2.3 -0.2
v 2.1 2.3 -0.2
v 2.3 2.3 -0.2
v 2.4 2.3 -0.2
v 2.5 2.3 -0.2
v 2.6 2.3 -0.2
v 0 2.3 -0.3
v 0.2 2.3 -0.3
v 0.3 2.3 -0.3
v 0.4 2.3 -0.3
v 0.5 2.3 -0.3
v 2.1 2.3 -0.3
v 2.3 2.3 -0.3
v 2.4 2.3 -0.3
v 2.5 2.3 -0.3
v 2.6 2.3 -0.3
v 0.2 2.3 -0.4
v 0.3 2.3 -0.4
v 0.4 2.3 -0.4
v 0.5 2.3 -0.4
v 0.7 2.3 -0.4
v 0.8 2.3 -0.4
v 0.9 2.3 -0.4
v 1.4 2.3 -0.4
v 1.8 2.3 -0.4
v 2 2.3 -0.4
v 2.1 2.3 -0.4
v 2.3 2.3 -0.4
v 2.4 2.3 -0.4
v 2.5 2.3 -0.4
v 0.7 2.3 -0.5
v 0.8 2.3 -0.5
v 0.9 2.3 -0.5
v 1.4 2.3 -0.5
v 1.8 2.3 -0.5
v 2 2.3 -0.5
v 0.3 2.4 -0.1
v 0.4 2.4 -0.1
v 0.5 2.4 -0.1
v 0.7 2.4 -0.1
v 2.1 2.4 -0.1
v 0.2 2.4 -0.2
v 0.3 2.4 -0.2
v 0.4 2.4 -0.2
v 0.5 2.4 -0.2
v 0.7 2.4 -0.2
v 0.8 2.4 -0.2
v 0.9 2.4 -0.2
v 1.4 2.4 -0.2
v 1.7 2.4 -0.2
v 1.9 2.4 -0.2
v 2.1 2.4 -0.2
v 2.3 2.4 -0.2
v 2.4 2.4 -0.2
v 2.5 2.4 -0.2
v 0.2 2.4 -0.3
v 0.3 2.4 -0.3
v 0.4 2.4 -0.3
v 0.5 2.4 -0.3
v 0.7 2.4 -0.3
v 0.8 2.4 -0.3
v 0.9 2.4 -0.3
v 1.4 2.4 -0.3
v 1.7 2.4 -0.3
v 1.9 2.4 -0.3
v 2.1 2.4 -0.3
v 2.3 2.4 -0.3
v 2.4 2.4 -0.3
v 2.5 2.4 -0.3
v 0.3 2.4 -0.4
v 0.4 2.4 -0.4
v 0.5 2.4 -0.4
v 0.7 2.4 -0.4
v 2.1 2.4 -0.4
v 0.7 2.5 -0.2
v 0.8 2.5 -0.2
v 0.9 2.5 -0.2
v 1.4 2.5 -0.2
v 1.7 2.5 -0.2
v 1.9 2.5 -0.2
v 0.7 2.5 -0.3
v 0.8 2.5 -0.3
v 0.9 2.5 -0.3
v 1.4 2.5 -0.3
v 1.7 2.5 -0.3
v 1.9 2.5 -0.3

# faces
f 3/4/1 2/4/1 1/4/1
f 4/4/1 2/4/1 3/4/1
f 8/4/1 6/4/1 5/4/1
f 9/4/1 6/4/1 8/4/1
f 11/4/1 8/4/1 7/4/1
f 12/4/1 8/4/1 11/4/1
f 13/4/1 10/4/1 9/4/1
f 14/4/1 10/4/1 13/4/1
f 15/4/1 13/4/1 12/4/1
f 16/4/1 13/4/1 15/4/1
f 21/4/1 18/4/1 17/4/1
f 22/4/1 18/4/1 21/4/1
f 23/4/1 20/4/1 19/4/1
f 24/4/1 20/4/1 23/4/1
f 29/4/1 26/4/1 25/4/1
f 30/4/1 26/4/1 29/4/1
f 31/4/1 28/4/1 27/4/1
f 32/4/1 28/4/1 31/4/1
f 36/4/1 34/4/1 33/4/1
f 37/4/1 34/4/1 36/4/1
f 39/4/1 36/4/1 35/4/1
f 40/4/1 36/4/1 39/4/1
f 41/4/1 38/4/1 37/4/1
f 42/4/1 38/4/1 41/4/1
f 43/4/1 41/4/1 40/4/1
f 44/4/1 41/4/1 43/4/1
f 49/4/1 46/4/1 45/4/1
f 50/4/1 46/4/1 49/4/1
f 51/4/1 48/4/1 47/4/1
f 52/4/1 48/4/1 51/4/1
f 57/4/1 54/4/1 53/4/1
f 58/4/1 54/4/1 57/4/1
f 59/4/1 56/4/1 55/4/1
f 60/4/1 56/4/1 59/4/1
f 63/2/1 62/2/1 61/2/1
f 64/2/1 62/2/1 63/2/1
f 69/2/1 66/2/1 65/2/1
f 70/2/1 66/2/1 69/2/1
f 71/2/1 68/2/1 67/2/1
f 72/2/1 68/2/1 71/2/1
f 75/2/1 74/2/1 73/2/1
f 76/2/1 74/2/1 75/2/1
f 79/2/1 78/2/1 77/2/1
f 80/2/1 78/2/1 79/2/1
f 85/2/1 82/2/1 81/2/1
f 86/2/1 82/2/1 85/2/1
f 87/2/1 84/2/1 83/2/1
f 88/2/1 84/2/1 87/2/1
f 91/2/1 90/2/1 89/2/1
f 92/2/1 90/2/1 91/2/1
f 95/2/1 94/2/1 93/2/1
f 96/2/1 94/2/1 95/2/1
f 99/2/1 98/2/1 97/2/1
f 100/2/1 98/2/1 99/2/1
f 103/2/1 102/2/1 101/2/1
f 104/2/1 102/2/1 103/2/1
f 107/2/1 106/2/1 105/2/1
f 108/2/1 106/2/1 107/2/1
f 112/3/1 110/3/1 109/3/1
f 113/3/1 110/3/1 112/3/1
f 115/3/1 112/3/1 111/3/1
f 116/3/1 112/3/1 115/3/1
f 117/3/1 114/3/1 113/3/1
f 118/3/1 114/3/1 117/3/1
f 119/3/1 117/3/1 116/3/1
f 120/3/1 117/3/1 119/3/1
f 121/4/2 122/4/2 124/4/2
f 124/4/2 122/4/2 125/4/2
f 123/4/2 124/4/2 127/4/2
f 127/4/2 124/4/2 128/4/2
f 125/4/2 126/4/2 129/4/2
f 129/4/2 126/4/2 130/4/2
f 128/4/2 129/4/2 131/4/2
f 131/4/2 129/4/2 132/4/2
f 133/4/2 134/4/2 137/4/2
f 137/4/2 134/4/2 138/4/2
f 135/4/2 136/4/2 139/4/2
f 139/4/2 136/4/2 140/4/2
f 141/4/2 142/4/2 145/4/2
f 145/4/2 142/4/2 146/4/2
f 143/4/2 144/4/2 147/4/2
f 147/4/2 144/4/2 148/4/2
f 149/2/2 150/2/2 151/2/2
f 151/2/2 150/2/2 152/2/2
f 153/2/2 154/2/2 157/2/2
f 157/2/2 154/2/2 158/2/2
f 155/2/2 156/2/2 159/2/2
f 159/2/2 156/2/2 160/2/2
f 161/2/2 162/2/2 163/2/2
f 163/2/2 162/2/2 164/2/2
f 165/2/2 166/2/2 167/2/2
f 167/2/2 166/2/2 168/2/2
f 169/2/2 170/2/2 173/2/2
f 173/2/2 170/2/2 174/2/2
f 171/2/2 172/2/2 175/2/2
f 175/2/2 172/2/2 176/2/2
f 177/2/2 178/2/2 179/2/2
f 179/2/2 178/2/2 180/2/2
f 181/2/2 182/2/2 183/2/2
f 183/2/2 182/2/2 184/2/2
f 185/2/2 186/2/2 187/2/2
f 187/2/2 186/2/2 188/2/2
f 189/2/2 190/2/2 191/2/2
f 191/2/2 190/2/2 192/2/2
f 193/2/2 194/2/2 195/2/2
f 195/2/2 194/2/2 196/2/2
f 197/1/2 198/1/2 201/1/2
f 201/1/2 198/1/2 202/1/2
f 199/1/2 200/1/2 203/1/2
f 203/1/2 200/1/2 204/1/2
f 205/1/2 206/1/2 209/1/2
f 209/1/2 206/1/2 210/1/2
f 207/1/2 208/1/2 211/1/2
f 211/1/2 208/1/2 212/1/2
f 213/1/2 214/1/2 216/1/2
f 216/1/2 214/1/2 217/1/2
f 215/1/2 216/1/2 219/1/2
f 219/1/2 216/1/2 220/1/2
f 217/1/2 218/1/2 221/1/2
f 221/1/2 218/1/2 222/1/2
f 220/1/2 221/1/2 223/1/2
f 223/1/2 221/1/2 224/1/2
f 225/3/2 226/3/2 228/3/2
f 228/3/2 226/3/2 229/3/2
f 227/3/2 228/3/2 231/3/2
f 231/3/2 228/3/2 232/3/2
f 229/3/2 230/3/2 233/3/2
f 233/3/2 230/3/2 234/3/2
f 232/3/2 233/3/2 235/3/2
f 235/3/2 233/3/2 236/3/2
f 237/3/2 238/3/2 239/3/2
f 239/3/2 238/3/2 240/3/2
f 243/2/3 242/2/3 241/2/3
f 244/2/3 242/2/3 243/2/3
f 247/2/3 246/2/3 245/2/3
f 248/2/3 246/2/3 247/2/3
f 251/2/3 250/2/3 249/2/3
f 252/2/3 250/2/3 251/2/3
f 256/4/3 254/4/3 253/4/3
f 257/4/3 254/4/3 256/4/3
f 259/4/3 256/4/3 255/4/3
f 260/4/3 256/4/3 259/4/3
f 261/4/3 258/4/3 257/4/3
f 262/4/3 258/4/3 261/4/3
f 264/4/3 261/4/3 260/4/3
f 265/4/3 261/4/3 264/4/3
f 267/4/3 264/4/3 263/4/3
f 267/4/3 266/4/3 265/4/3
f 267/4/3 265/4/3 264/4/3
f 268/4/3 266/4/3 267/4/3
f 269/4/3 266/4/3 268/4/3
f 270/4/3 266/4/3 269/4/3
f 271/1/3 268/1/3 267/1/3
f 272/1/3 270/1/3 269/1/3
f 273/1/3 271/1/3 267/1/3
f 273/1/3 272/1/3 271/1/3
f 274/1/3 270/1/3 272/1/3
f 274/1/3 272/1/3 273/1/3
f 275/1/3 273/1/3 267/1/3
f 276/1/3 270/1/3 274/1/3
f 277/1/3 275/1/3 267/1/3
f 277/1/3 276/1/3 275/1/3
f 278/1/3 270/1/3 276/1/3
f 278/1/3 276/1/3 277/1/3
f 279/1/3 277/1/3 267/1/3
f 280/1/3 270/1/3 278/1/3
f 281/1/3 279/1/3 267/1/3
f 281/1/3 280/1/3 279/1/3
f 282/1/3 280/1/3 281/1/3
f 283/1/3 270/1/3 280/1/3
f 283/1/3 280/1/3 282/1/3
f 284/1/3 270/1/3 283/1/3
f 285/1/3 283/1/3 282/1/3
f 286/1/3 283/1/3 285/1/3
f 289/3/3 288/3/3 287/3/3
f 290/3/3 288/3/3 289/3/3
f 294/4/3 292/4/3 291/4/3
f 295/4/3 292/4/3 294/4/3
f 297/4/3 294/4/3 293/4/3
f 298/4/3 294/4/3 297/4/3
f 299/4/3 296/4/3 295/4/3
f 300/4/3 296/4/3 299/4/3
f 302/4/3 299/4/3 298/4/3
f 303/4/3 299/4/3 302/4/3
f 305/4/3 302/4/3 301/4/3
f 306/4/3 302/4/3 305/4/3
f 307/4/3 304/4/3 303/4/3
f 308/4/3 304/4/3 307/4/3
f 313/2/3 310/2/3 309/2/3
f 314/2/3 310/2/3 313/2/3
f 315/2/3 312/2/3 311/2/3
f 316/2/3 312/2/3 315/2/3
f 321/2/3 318/2/3 317/2/3
f 322/2/3 318/2/3 321/2/3
f 323/2/3 320/2/3 319/2/3
f 324/2/3 320/2/3 323/2/3
f 329/2/3 326/2/3 325/2/3
f 330/2/3 326/2/3 329/2/3
f 331/2/3 328/2/3 327/2/3
f 332/2/3 328/2/3 331/2/3
f 337/1/3 334/1/3 333/1/3
f 338/1/3 334/1/3 337/1/3
f 339/1/3 336/1/3 335/1/3
f 340/1/3 336/1/3 339/1/3
f 342/3/3 339/3/3 338/3/3
f 343/3/3 339/3/3 342/3/3
f 345/3/3 342/3/3 341/3/3
f 346/3/3 342/3/3 345/3/3
f 347/3/3 344/3/3 343/3/3
f 348/3/3 344/3/3 347/3/3
f 349/3/3 347/3/3 346/3/3
f 350/3/3 347/3/3 349/3/3
f 355/4/3 352/4/3 351/4/3
f 356/4/3 352/4/3 355/4/3
f 357/4/3 354/4/3 353/4/3
f 358/4/3 354/4/3 357/4/3
f 359/4/4 360/4/4 363/4/4
f 363/4/4 360/4/4 364/4/4
f 361/4/4 362/4/4 365/4/4
f 365/4/4 362/4/4 366/4/4
f 367/4/4 368/4/4 370/4/4
f 370/4/4 368/4/4 371/4/4
f 369/4/4 370/4/4 373/4/4
f 373/4/4 370/4/4 374/4/4
f 371/4/4 372/4/4 375/4/4
f 375/4/4 372/4/4 376/4/4
f 374/4/4 375/4/4 378/4/4
f 378/4/4 375/4/4 379/4/4
f 377/4/4 378/4/4 381/4/4
f 381/4/4 378/4/4 382/4/4
f 379/4/4 380/4/4 383/4/4
f 383/4/4 380/4/4 384/4/4
f 385/2/4 386/2/4 389/2/4
f 389/2/4 386/2/4 390/2/4
f 387/2/4 388/2/4 391/2/4
f 391/2/4 388/2/4 392/2/4
f 393/2/4 394/2/4 397/2/4
f 397/2/4 394/2/4 398/2/4
f 395/2/4 396/2/4 399/2/4
f 399/2/4 396/2/4 400/2/4
f 401/2/4 402/2/4 405/2/4
f 405/2/4 402/2/4 406/2/4
f 403/2/4 404/2/4 407/2/4
f 407/2/4 404/2/4 408/2/4
f 409/1/4 410/1/4 413/1/4
f 413/1/4 410/1/4 414/1/4
f 411/1/4 412/1/4 415/1/4
f 415/1/4 412/1/4 416/1/4
f 414/3/4 415/3/4 418/3/4
f 418/3/4 415/3/4 419/3/4
f 417/3/4 418/3/4 421/3/4
f 421/3/4 418/3/4 422/3/4
f 419/3/4 420/3/4 423/3/4
f 423/3/4 420/3/4 424/3/4
f 422/3/4 423/3/4 425/3/4
f 425/3/4 423/3/4 426/3/4
f 427/4/4 428/4/4 430/4/4
f 430/4/4 428/4/4 431/4/4
f 429/4/4 430/4/4 433/4/4
f 433/4/4 430/4/4 434/4/4
f 431/4/4 432/4/4 435/4/4
f 435/4/4 432/4/4 436/4/4
f 434/4/4 435/4/4 438/4/4
f 438/4/4 435/4/4 439/4/4
f 437/4/4 438/4/4 441/4/4
f 439/4/4 440/4/4 441/4/4
f 438/4/4 439/4/4 441/4/4
f 441/4/4 440/4/4 442/4/4
f 442/4/4 440/4/4 443/4/4
f 443/4/4 440/4/4 444/4/4
f 441/1/4 442/1/4 445/1/4
f 443/1/4 444/1/4 446/1/4
f 441/1/4 445/1/4 447/1/4
f 445/1/4 446/1/4 447/1/4
f 446/1/4 444/1/4 448/1/4
f 447/1/4 446/1/4 448/1/4
f 441/1/4 447/1/4 449/1/4
f 448/1/4 444/1/4 450/1/4
f 441/1/4 449/1/4 451/1/4
f 449/1/4 450/1/4 451/1/4
f 450/1/4 444/1/4 452/1/4
f 451/1/4 450/1/4 452/1/4
f 441/1/4 451/1/4 453/1/4
f 452/1/4 444/1/4 454/1/4
f 441/1/4 453/1/4 455/1/4
f 453/1/4 454/1/4 455/1/4
f 455/1/4 454/1/4 456/1/4
f 454/1/4 444/1/4 457/1/4
f 456/1/4 454/1/4 457/1/4
f 457/1/4 444/1/4 458/1/4
f 456/1/4 457/1/4 459/1/4
f 459/1/4 457/1/4 460/1/4
f 461/3/4 462/3/4 463/3/4
f 463/3/4 462/3/4 464/3/4
f 465/2/4 466/2/4 467/2/4
f 467/2/4 466/2/4 468/2/4
f 469/2/4 470/2/4 471/2/4
f 471/2/4 470/2/4 472/2/4
f 473/2/4 474/2/4 475/2/4
f 475/2/4 474/2/4 476/2/4
f 483/2/5 478/2/5 477/2/5
f 484/2/5 478/2/5 483/2/5
f 485/2/5 480/2/5 479/2/5
f 486/2/5 480/2/5 485/2/5
f 487/2/5 482/2/5 481/2/5
f 488/2/5 482/2/5 487/2/5
f 495/4/5 490/4/5 489/4/5
f 496/4/5 490/4/5 495/4/5
f 497/4/5 492/4/5 491/4/5
f 498/1/5 493/1/5 492/1/5
f 498/4/5 492/4/5 497/4/5
f 499/1/5 493/1/5 498/1/5
f 500/1/5 493/1/5 499/1/5
f 501/1/5 493/1/5 500/1/5
f 502/1/5 493/1/5 501/1/5
f 503/1/5 493/1/5 502/1/5
f 504/1/5 493/1/5 503/1/5
f 508/4/5 495/4/5 494/4/5
f 509/4/5 495/4/5 508/4/5
f 510/4/5 497/4/5 496/4/5
f 510/4/5 498/4/5 497/4/5
f 511/4/5 498/4/5 510/4/5
f 512/4/5 498/4/5 511/4/5
f 513/1/5 500/1/5 499/1/5
f 514/1/5 500/1/5 513/1/5
f 515/1/5 502/1/5 501/1/5
f 516/1/5 502/1/5 515/1/5
f 517/1/5 505/1/5 504/1/5
f 517/1/5 504/1/5 503/1/5
f 518/1/5 505/1/5 517/1/5
f 519/1/5 505/1/5 518/1/5
f 520/3/5 507/3/5 506/3/5
f 521/3/5 507/3/5 520/3/5
f 522/4/5 510/4/5 509/4/5
f 523/4/5 510/4/5 522/4/5
f 524/4/5 512/4/5 511/4/5
f 525/1/5 516/1/5 515/1/5
f 525/4/5 512/4/5 524/4/5
f 525/1/5 515/1/5 514/1/5
f 525/1/5 514/1/5 513/1/5
f 525/1/5 518/1/5 517/1/5
f 525/1/5 517/1/5 516/1/5
f 525/1/5 513/1/5 512/1/5
f 526/1/5 518/1/5 525/1/5
f 537/2/5 528/2/5 527/2/5
f 538/2/5 528/2/5 537/2/5
f 539/2/5 530/2/5 529/2/5
f 540/2/5 530/2/5 539/2/5
f 541/2/5 532/2/5 531/2/5
f 542/2/5 532/2/5 541/2/5
f 548/4/5 534/4/5 533/4/5
f 549/4/5 534/4/5 548/4/5
f 550/4/5 536/4/5 535/4/5
f 551/4/5 536/4/5 550/4/5
f 552/1/5 544/1/5 543/1/5
f 553/1/5 544/1/5 552/1/5
f 554/3/5 546/3/5 545/3/5
f 555/3/5 546/3/5 554/3/5
f 557/4/5 548/4/5 547/4/5
f 558/4/5 548/4/5 557/4/5
f 559/4/5 550/4/5 549/4/5
f 560/4/5 550/4/5 559/4/5
f 563/3/5 554/3/5 553/3/5
f 564/3/5 554/3/5 563/3/5
f 565/3/5 556/3/5 555/3/5
f 566/3/5 556/3/5 565/3/5
f 567/4/5 559/4/5 558/4/5
f 568/4/5 559/4/5 567/4/5
f 569/4/5 561/4/5 560/4/5
f 570/4/5 561/4/5 569/4/5
f 577/1/5 563/1/5 562/1/5
f 578/1/5 563/1/5 577/1/5
f 579/3/5 565/3/5 564/3/5
f 580/3/5 565/3/5 579/3/5
f 581/2/5 572/2/5 571/2/5
f 582/2/5 572/2/5 581/2/5
f 583/2/5 574/2/5 573/2/5
f 584/2/5 574/2/5 583/2/5
f 585/2/5 576/2/5 575/2/5
f 586/2/5 576/2/5 585/2/5
f 589/4/5 588/4/5 587/4/5
f 590/4/5 588/4/5 589/4/5
f 593/4/5 592/4/5 591/4/5
f 594/4/5 592/4/5 593/4/5
f 595/4/6 596/4/6 597/4/6
f 597/4/6 596/4/6 598/4/6
f 599/4/6 600/4/6 601/4/6
f 601/4/6 600/4/6 602/4/6
f 603/2/6 604/2/6 613/2/6
f 613/2/6 604/2/6 614/2/6
f 605/2/6 606/2/6 615/2/6
f 615/2/6 606/2/6 616/2/6
f 607/2/6 608/2/6 617/2/6
f 617/2/6 608/2/6 618/2/6
f 609/4/6 610/4/6 624/4/6
f 624/4/6 610/4/6 625/4/6
f 611/4/6 612/4/6 626/4/6
f 626/4/6 612/4/6 627/4/6
f 619/1/6 620/1/6 628/1/6
f 628/1/6 620/1/6 629/1/6
f 621/3/6 622/3/6 630/3/6
f 630/3/6 622/3/6 631/3/6
f 623/4/6 624/4/6 633/4/6
f 633/4/6 624/4/6 634/4/6
f 625/4/6 626/4/6 635/4/6
f 635/4/6 626/4/6 636/4/6
f 629/3/6 630/3/6 639/3/6
f 639/3/6 630/3/6 640/3/6
f 631/3/6 632/3/6 641/3/6
f 641/3/6 632/3/6 642/3/6
f 634/4/6 635/4/6 643/4/6
f 643/4/6 635/4/6 644/4/6
f 636/4/6 637/4/6 645/4/6
f 645/4/6 637/4/6 646/4/6
f 638/1/6 639/1/6 653/1/6
f 653/1/6 639/1/6 654/1/6
f 640/3/6 641/3/6 655/3/6
f 655/3/6 641/3/6 656/3/6
f 647/2/6 648/2/6 657/2/6
f 657/2/6 648/2/6 658/2/6
f 649/2/6 650/2/6 659/2/6
f 659/2/6 650/2/6 660/2/6
f 651/2/6 652/2/6 661/2/6
f 661/2/6 652/2/6 662/2/6
f 663/4/6 664/4/6 669/4/6
f 669/4/6 664/4/6 670/4/6
f 665/4/6 666/4/6 671/4/6
f 666/1/6 667/1/6 672/1/6
f 671/4/6 666/4/6 672/4/6
f 672/1/6 667/1/6 673/1/6
f 673/1/6 667/1/6 674/1/6
f 674/1/6 667/1/6 675/1/6
f 675/1/6 667/1/6 676/1/6
f 676/1/6 667/1/6 677/1/6
f 677/1/6 667/1/6 678/1/6
f 668/4/6 669/4/6 682/4/6
f 682/4/6 669/4/6 683/4/6
f 670/4/6 671/4/6 684/4/6
f 671/4/6 672/4/6 684/4/6
f 684/4/6 672/4/6 685/4/6
f 685/4/6 672/4/6 686/4/6
f 673/1/6 674/1/6 687/1/6
f 687/1/6 674/1/6 688/1/6
f 675/1/6 676/1/6 689/1/6
f 689/1/6 676/1/6 690/1/6
f 678/1/6 679/1/6 691/1/6
f 677/1/6 678/1/6 691/1/6
f 691/1/6 679/1/6 692/1/6
f 692/1/6 679/1/6 693/1/6
f 680/3/6 681/3/6 694/3/6
f 694/3/6 681/3/6 695/3/6
f 683/4/6 684/4/6 696/4/6
f 696/4/6 684/4/6 697/4/6
f 685/4/6 686/4/6 698/4/6
f 689/1/6 690/1/6 699/1/6
f 698/4/6 686/4/6 699/4/6
f 688/1/6 689/1/6 699/1/6
f 687/1/6 688/1/6 699/1/6
f 691/1/6 692/1/6 699/1/6
f 690/1/6 691/1/6 699/1/6
f 686/1/6 687/1/6 699/1/6
f 699/1/6 692/1/6 700/1/6
f 701/2/6 702/2/6 707/2/6
f 707/2/6 702/2/6 708/2/6
f 703/2/6 704/2/6 709/2/6
f 709/2/6 704/2/6 710/2/6
f 705/2/6 706/2/6 711/2/6
f 711/2/6 706/2/6 712/2/6
